Time ,  , X_Position , X_Velocity , Angle_Y , Angular_Velocity_Y ,  , Y_Position , Y_Velocity , Angle_X , Angular_Velocity_X
 [s] ,  , [mm] , [mm/s] , [deg] , [deg/s] ,  , [mm] , [mm/s] , [deg] , [deg/s]
1.5592 ,  , 0.00 , 0.00 , -2.00 , 0.00 ,  , 0.00 , 0.00 , 0.00 , 0.00
2.1368 ,  , 0.00 , 0.00 , -1.06 , -1.63 ,  , 0.00 , 0.00 , -0.63 , 1.94
2.2638 ,  , 0.00 , 0.00 , -1.19 , 2.75 ,  , 0.00 , 0.00 , -0.63 , 0.63
2.3874 ,  , 0.00 , 0.00 , -1.19 , -0.06 ,  , 0.00 , 0.00 , -0.63 , -0.50
2.5120 ,  , 0.00 , 0.00 , -1.19 , -0.25 ,  , 0.00 , 0.00 , -0.63 , -0.31
2.6543 ,  , 0.00 , 0.00 , -1.19 , 0.25 ,  , 0.00 , 0.00 , -0.63 , -0.13
2.7633 ,  , 0.00 , 0.00 , -1.19 , 0.13 ,  , 0.00 , 0.00 , -0.63 , -0.19
2.8878 ,  , 0.00 , 0.00 , -1.19 , -0.06 ,  , 0.00 , 0.00 , -0.63 , -0.19
3.0120 ,  , 0.00 , 0.00 , -1.19 , 0.06 ,  , 0.00 , 0.00 , -0.63 , -0.25
3.1411 ,  , 0.00 , 0.00 , -1.19 , 0.19 ,  , 0.00 , 0.00 , -0.63 , 0.06
3.2641 ,  , 0.00 , 0.00 , -1.19 , 0.19 ,  , 0.00 , 0.00 , -0.63 , 0.25
3.3882 ,  , 0.00 , 0.00 , -1.19 , 0.06 ,  , 0.00 , 0.00 , -0.63 , 0.69
3.5126 ,  , 0.00 , 0.00 , -1.19 , 0.13 ,  , 0.00 , 0.00 , -0.63 , -0.13
3.6399 ,  , 0.00 , 0.00 , -1.19 , -0.25 ,  , 0.00 , 0.00 , -0.63 , -0.19
3.7641 ,  , 0.00 , 0.00 , -1.19 , -0.56 ,  , 0.00 , 0.00 , -0.63 , -0.31
3.8904 ,  , 0.00 , 0.00 , -1.19 , 0.13 ,  , 0.00 , 0.00 , -0.63 , 0.13
4.0142 ,  , 0.00 , 0.00 , -1.19 , 0.13 ,  , 0.00 , 0.00 , -0.63 , -0.06
4.1384 ,  , 0.00 , 0.00 , -1.19 , -0.13 ,  , 0.00 , 0.00 , -0.63 , -0.25
4.2633 ,  , 0.00 , 0.00 , -1.19 , -0.06 ,  , 0.00 , 0.00 , -0.63 , 0.00
4.3889 ,  , 0.00 , 0.00 , -1.19 , 0.38 ,  , 0.00 , 0.00 , -0.63 , -0.13
4.5120 ,  , 0.00 , 0.00 , -1.19 , -0.31 ,  , 0.00 , 0.00 , -0.63 , -0.19
4.6387 ,  , 0.00 , 0.00 , -1.19 , 0.06 ,  , 0.00 , 0.00 , -0.63 , 0.00
4.7640 ,  , 0.00 , 0.00 , -1.19 , 0.19 ,  , 0.00 , 0.00 , -0.63 , 0.00
4.8899 ,  , 0.00 , 0.00 , -1.19 , 0.00 ,  , 0.00 , 0.00 , -0.63 , 0.13
5.0125 ,  , 0.00 , 0.00 , -1.19 , 0.00 ,  , 0.00 , 0.00 , -0.63 , -0.06
5.1402 ,  , 0.00 , 0.00 , -1.19 , 0.00 ,  , 0.00 , 0.00 , -0.63 , 0.13
5.3883 ,  , 0.00 , 0.00 , -1.19 , -0.19 ,  , 0.00 , 0.00 , -0.63 , 0.00
5.5131 ,  , 0.00 , 0.00 , -1.19 , 0.00 ,  , 0.00 , 0.00 , -0.63 , 0.06
5.6412 ,  , 0.00 , 0.00 , -1.19 , 0.00 ,  , 0.00 , 0.00 , -0.63 , -0.06
5.7617 ,  , 0.00 , 0.00 , -1.19 , 0.19 ,  , 0.00 , 0.00 , -0.63 , -0.06
5.8916 ,  , 0.00 , 0.00 , -1.19 , -0.06 ,  , 0.00 , 0.00 , -0.63 , 0.06
6.0121 ,  , 0.00 , 0.00 , -1.19 , 0.13 ,  , 0.00 , 0.00 , -0.63 , 0.00
6.1375 ,  , 0.00 , 0.00 , -1.19 , -0.06 ,  , 0.00 , 0.00 , -0.63 , 0.06
6.3920 ,  , 0.00 , 0.00 , -1.19 , 0.06 ,  , 0.00 , 0.00 , -0.63 , -0.31
6.5132 ,  , 0.00 , 0.00 , -1.19 , 0.00 ,  , 0.00 , 0.00 , -0.63 , 0.13
6.6430 ,  , 0.00 , 0.00 , -1.19 , -0.06 ,  , 0.00 , 0.00 , -0.63 , 0.06
6.7635 ,  , 0.00 , 0.00 , -1.19 , 0.13 ,  , 0.00 , 0.00 , -0.63 , 0.13
6.8892 ,  , 0.00 , 0.00 , -1.19 , 0.00 ,  , 0.00 , 0.00 , -0.63 , 0.25
7.0141 ,  , 0.00 , 0.00 , -1.19 , 0.19 ,  , 0.00 , 0.00 , -0.63 , 0.00
7.1423 ,  , 0.00 , 0.00 , -1.19 , -0.06 ,  , 0.00 , 0.00 , -0.63 , 0.06
7.3869 ,  , 0.00 , 0.00 , -1.19 , 0.00 ,  , 0.00 , 0.00 , -0.63 , -0.13
7.5152 ,  , 0.00 , 0.00 , -1.19 , 0.06 ,  , 0.00 , 0.00 , -0.63 , 0.19
7.6386 ,  , 0.00 , 0.00 , -1.19 , 0.06 ,  , 0.00 , 0.00 , -0.63 , -0.19
7.7631 ,  , 0.00 , 0.00 , -1.19 , 0.00 ,  , 0.00 , 0.00 , -0.63 , 0.00
7.8912 ,  , 0.00 , 0.00 , -1.19 , -0.06 ,  , 0.00 , 0.00 , -0.63 , 0.06
8.0143 ,  , 0.00 , 0.00 , -1.19 , 0.06 ,  , 0.00 , 0.00 , -0.63 , 0.06
8.1399 ,  , 0.00 , 0.00 , -1.19 , 0.06 ,  , 0.00 , 0.00 , -0.63 , 0.06
8.2644 ,  , 0.00 , 0.00 , -1.19 , 0.13 ,  , 0.00 , 0.00 , -0.63 , -0.19
8.3883 ,  , 0.00 , 0.00 , -1.19 , 0.06 ,  , 0.00 , 0.00 , -0.63 , 0.06
8.5131 ,  , 0.00 , 0.00 , -1.19 , -0.19 ,  , 0.00 , 0.00 , -0.63 , -0.19
8.6387 ,  , 0.00 , 0.00 , -1.19 , 0.13 ,  , 0.00 , 0.00 , -0.63 , -0.06
8.7660 ,  , 0.00 , 0.00 , -1.19 , -0.06 ,  , 0.00 , 0.00 , -0.63 , -0.13
8.8900 ,  , 0.00 , 0.00 , -1.19 , 0.00 ,  , 0.00 , 0.00 , -0.63 , 0.06
9.0129 ,  , 0.00 , 0.00 , -1.19 , 0.06 ,  , 0.00 , 0.00 , -0.63 , 0.06
9.1377 ,  , 0.00 , 0.00 , -1.19 , -0.06 ,  , 0.00 , 0.00 , -0.63 , -0.19
9.2658 ,  , 0.00 , 0.00 , -1.19 , -0.06 ,  , 0.00 , 0.00 , -0.63 , -0.25
9.3871 ,  , 0.00 , 0.00 , -1.19 , 0.00 ,  , 0.00 , 0.00 , -0.63 , -0.25
9.5129 ,  , 0.00 , 0.00 , -1.19 , 0.06 ,  , 0.00 , 0.00 , -0.63 , -0.19
9.6375 ,  , 0.00 , 0.00 , -1.19 , -0.13 ,  , 0.00 , 0.00 , -0.63 , 0.25
9.7622 ,  , 0.00 , 0.00 , -1.19 , 0.06 ,  , 0.00 , 0.00 , -0.63 , 0.00
9.8888 ,  , 0.00 , 0.00 , -1.19 , 0.13 ,  , 0.00 , 0.00 , -0.63 , 0.00
10.0121 ,  , 0.00 , 0.00 , -1.19 , 0.00 ,  , 0.00 , 0.00 , -0.63 , -0.13
10.1407 ,  , 0.00 , 0.00 , -1.19 , 0.13 ,  , 0.00 , 0.00 , -0.63 , 0.06
10.2628 ,  , 0.00 , 0.00 , -1.19 , -0.19 ,  , 0.00 , 0.00 , -0.63 , 0.13
10.3916 ,  , 0.00 , 0.00 , -1.19 , -0.13 ,  , 0.00 , 0.00 , -0.63 , 0.06
10.5118 ,  , 2.18 , 6.20 , -1.19 , -0.13 ,  , -0.83 , -3.60 , -0.63 , 0.50
10.6381 ,  , 2.23 , 0.00 , -1.13 , 0.38 ,  , -0.81 , 0.00 , -0.63 , 0.88
10.7647 ,  , 2.37 , 0.00 , -1.19 , 0.94 ,  , -0.22 , 28.43 , -0.63 , 0.06
10.8874 ,  , 3.25 , 14.53 , -1.19 , -0.19 ,  , 0.11 , 21.06 , -0.63 , -0.06
11.1370 ,  , 8.91 , 62.75 , -1.25 , -0.06 ,  , -0.43 , -24.25 , -0.63 , 0.25
11.2629 ,  , 13.46 , 59.61 , -1.25 , 0.19 ,  , -2.74 , -23.93 , -0.63 , -0.25
11.3887 ,  , 16.19 , 34.60 , -1.25 , 0.44 ,  , -6.27 , -20.06 , -0.63 , 0.31
11.5146 ,  , 20.93 , 35.83 , -1.25 , 2.19 ,  , -11.22 , -72.70 , -0.56 , -8.00
11.6398 ,  , 24.36 , 34.47 , -1.19 , -3.31 ,  , -16.68 , -59.96 , -0.75 , 13.31
11.7643 ,  , 28.12 , 0.00 , -1.25 , 0.81 ,  , -21.84 , -54.87 , -0.75 , -0.94
12.0144 ,  , 29.65 , 17.89 , -1.25 , -0.06 ,  , -27.63 , 0.00 , -0.75 , 0.06
12.1387 ,  , 29.05 , 0.00 , -1.25 , -0.06 ,  , -24.56 , 50.67 , -0.75 , -0.19
12.2642 ,  , 27.10 , -4249.60 , -1.25 , 0.06 ,  , -20.66 , -52.27 , -0.75 , 0.25
12.3889 ,  , 24.36 , -13.85 , -1.06 , 1.00 ,  , -17.65 , 96.34 , -0.94 , -3.06
12.5158 ,  , 21.34 , -16.42 , -0.94 , -1.19 ,  , -15.20 , 47.59 , -0.75 , -4.50
12.6385 ,  , 18.47 , -42.72 , -0.94 , 0.63 ,  , -13.48 , 6.19 , -0.81 , -2.50
12.7616 ,  , 15.78 , -10.53 , -0.94 , 0.56 ,  , -13.58 , -4.07 , -0.81 , -2.88
13.0130 ,  , 19.81 , 12.48 , -0.94 , -0.56 ,  , -17.03 , -14.47 , -0.81 , 5.94
13.1369 ,  , 20.09 , 6.91 , -0.31 , -18.50 ,  , -19.85 , -8.01 , -1.00 , 10.87
13.2665 ,  , 92.38 , 7642.86 , -0.38 , 4.69 ,  , -20.63 , 5.52 , -1.00 , -2.00
13.3882 ,  , 16.98 , -7.12 , -0.50 , 6.00 ,  , -19.80 , 16.51 , -1.00 , 0.94
13.5125 ,  , 17.12 , -3.27 , -0.38 , -1.31 ,  , -18.37 , 15.18 , -0.94 , -0.38
13.6382 ,  , 17.12 , -7.22 , -0.31 , -0.13 ,  , -16.54 , 6.28 , -0.88 , -0.06
13.8892 ,  , 16.70 , 7.34 , -0.31 , 0.31 ,  , -15.41 , 8.51 , -0.88 , 0.19
14.0149 ,  , 16.89 , 7.19 , -0.31 , -0.13 ,  , -15.58 , -8.33 , -0.88 , 0.06
14.1400 ,  , 16.70 , -7.04 , -0.31 , 0.19 ,  , -15.87 , 8.17 , -0.88 , 0.00
14.2622 ,  , 16.70 , 6.65 , -0.31 , -0.19 ,  , -15.90 , 3.85 , -0.88 , -0.06
14.3879 ,  , 16.75 , 3.45 , -0.31 , 0.13 ,  , -15.87 , 0.00 , -0.88 , -0.06
14.5142 ,  , 16.70 , -4.01 , -0.31 , 0.19 ,  , -15.90 , 4.65 , -0.88 , 0.44
14.6409 ,  , 16.70 , -14.11 , -0.31 , -0.44 ,  , -15.82 , 0.00 , -0.88 , -0.38
14.8910 ,  , 16.66 , -6.30 , -0.31 , 0.00 ,  , -15.82 , 0.00 , -0.88 , -0.19
15.0130 ,  , 16.75 , 0.00 , -0.31 , 0.19 ,  , -15.82 , 3.81 , -0.88 , 0.00
15.1399 ,  , 16.75 , 0.00 , -0.31 , -0.06 ,  , -15.82 , 0.00 , -0.88 , -0.19
15.2643 ,  , 16.75 , 0.00 , -0.31 , -0.06 ,  , -15.82 , 0.00 , -0.88 , 0.06
15.3885 ,  , 16.75 , 16.45 , -0.31 , -0.06 ,  , -15.84 , -9.54 , -0.88 , 0.13
15.5115 ,  , 16.75 , 0.00 , -0.31 , 0.00 ,  , -15.82 , 0.00 , -0.88 , 0.06
15.6418 ,  , 16.70 , -11.95 , -0.31 , -0.06 ,  , -15.82 , 0.00 , -0.88 , -0.06
15.8877 ,  , 16.80 , 4.83 , -0.31 , -0.13 ,  , -15.87 , -2.80 , -0.88 , -0.25
16.0121 ,  , 16.80 , 6.48 , -0.31 , -0.06 ,  , -15.84 , -1.88 , -0.88 , 0.00
16.1379 ,  , 16.80 , 0.00 , -0.31 , 0.00 ,  , -15.84 , 0.00 , -0.88 , 0.06
16.2631 ,  , 16.75 , -5.52 , -0.31 , 0.06 ,  , -15.87 , -3.20 , -0.88 , 0.06
16.3869 ,  , 16.75 , -4.47 , -0.31 , -0.13 ,  , -15.84 , 0.00 , -0.88 , 0.13
16.5137 ,  , 16.75 , -4.69 , -0.31 , 0.06 ,  , -15.84 , 0.00 , -0.88 , -0.19
16.7620 ,  , 16.84 , 6.79 , -0.31 , -0.63 ,  , -15.87 , 0.00 , -0.88 , 0.31
16.8902 ,  , 16.70 , 0.00 , -0.31 , -0.06 ,  , -15.87 , 10.05 , -0.88 , 0.06
17.0128 ,  , 16.75 , -17.00 , -0.31 , 0.13 ,  , -15.87 , 0.00 , -0.88 , 0.00
17.1383 ,  , 16.70 , -5.69 , -0.31 , 0.19 ,  , -15.92 , -9.90 , -0.88 , 0.00
17.2637 ,  , 16.70 , -5.16 , -0.31 , -0.13 ,  , -15.84 , 2.99 , -0.88 , -0.06
17.3872 ,  , 16.75 , 0.00 , -0.31 , 0.19 ,  , -15.84 , 2.74 , -0.88 , 0.25
17.5161 ,  , 16.70 , -3.52 , -0.31 , 0.06 ,  , -15.87 , 2.04 , -0.88 , -0.06
17.7663 ,  , 16.75 , -4.72 , -0.31 , 0.00 ,  , -15.87 , -2.74 , -0.88 , -0.06
17.8868 ,  , 16.75 , -4.60 , -0.31 , 0.13 ,  , -15.84 , 2.67 , -0.88 , 0.19
18.0163 ,  , 16.75 , 0.00 , -0.31 , 0.00 ,  , -15.87 , 0.00 , -0.88 , 0.13
18.1390 ,  , 16.80 , 0.00 , -0.31 , -0.06 ,  , -15.87 , -3.51 , -0.88 , -0.19
18.2651 ,  , 16.75 , 0.00 , -0.31 , -0.19 ,  , -15.90 , -6.85 , -0.88 , 0.06
18.3894 ,  , 16.75 , 0.00 , -0.31 , -0.19 ,  , -15.79 , 10.94 , -0.88 , 0.00
18.5155 ,  , 16.70 , -7.35 , -0.31 , -0.06 ,  , -15.87 , 4.26 , -0.88 , 0.00
18.7634 ,  , 16.66 , -9.87 , -0.31 , 0.13 ,  , -15.87 , 0.00 , -0.88 , 0.19
18.8880 ,  , 16.75 , 0.00 , -0.31 , -0.06 ,  , -15.87 , -3.35 , -0.88 , 0.06
19.0385 ,  , 16.75 , -3.73 , -0.31 , 0.00 ,  , -15.84 , 2.16 , -0.88 , 0.13
19.1398 ,  , 16.70 , 0.00 , -0.31 , -0.13 ,  , -15.82 , 8.63 , -0.88 , 0.00
19.2654 ,  , 16.75 , 0.00 , -0.31 , 0.06 ,  , -15.84 , 0.00 , -0.88 , -0.13
19.3903 ,  , 16.70 , 0.00 , -0.31 , 0.00 ,  , -15.84 , 0.00 , -0.88 , -0.06
19.5130 ,  , 16.70 , -6.48 , -0.31 , 0.00 ,  , -15.84 , 0.00 , -0.88 , 0.00
19.7627 ,  , 16.70 , 3.45 , -0.31 , 0.06 ,  , -15.87 , 0.00 , -0.88 , 0.00
19.8870 ,  , 16.66 , -7.00 , -0.31 , -0.19 ,  , -15.84 , 0.00 , -0.88 , -0.06
20.0143 ,  , 16.70 , -9.96 , -0.31 , 0.06 ,  , -15.87 , -2.89 , -0.88 , 0.19
20.1413 ,  , 16.66 , -9.73 , -0.31 , -0.06 ,  , -15.87 , -2.82 , -0.88 , 0.13
20.2635 ,  , 16.70 , -6.04 , -0.31 , 0.06 ,  , -15.87 , -10.50 , -0.88 , -0.06
20.3867 ,  , 16.70 , -6.26 , -0.31 , -0.06 ,  , -15.87 , -7.25 , -0.88 , 0.19
