Time ,  , X_Position , X_Velocity , Angle_Y , Angular_Velocity_Y ,  , Y_Position , Y_Velocity , Angle_X , Angular_Velocity_X
 [s] ,  , [mm] , [mm/s] , [deg] , [deg/s] ,  , [mm] , [mm/s] , [deg] , [deg/s]
2.1511 ,  , 0.00 , 0.00 , -2.00 , 0.00 ,  , 0.00 , 0.00 , 0.00 , 0.00
2.7658 ,  , 0.00 , 0.00 , -0.81 , 1.44 ,  , 0.00 , 0.00 , 0.00 , 1.81
2.8947 ,  , 0.00 , 0.00 , -0.88 , 1.31 ,  , 0.00 , 0.00 , 0.00 , -0.13
3.0148 ,  , 0.00 , 0.00 , -0.81 , -0.56 ,  , 0.00 , 0.00 , 0.00 , 0.25
3.1386 ,  , 0.00 , 0.00 , -0.88 , 0.69 ,  , 0.00 , 0.00 , 0.00 , -0.06
3.2680 ,  , 0.00 , 0.00 , -0.88 , -0.25 ,  , 0.00 , 0.00 , 0.00 , -0.25
3.3930 ,  , 0.00 , 0.00 , -0.88 , -0.13 ,  , 0.00 , 0.00 , 0.00 , -0.06
3.5180 ,  , 0.00 , 0.00 , -0.88 , -0.13 ,  , 0.00 , 0.00 , 0.00 , 0.00
3.6403 ,  , 0.00 , 0.00 , -0.88 , 0.19 ,  , 0.00 , 0.00 , 0.00 , -0.06
3.7641 ,  , 0.00 , 0.00 , -0.88 , -0.06 ,  , 0.00 , 0.00 , 0.00 , -0.25
3.8903 ,  , 0.00 , 0.00 , -0.88 , 0.06 ,  , 0.00 , 0.00 , 0.00 , -0.13
4.0194 ,  , 0.00 , 0.00 , -0.88 , 0.06 ,  , 0.00 , 0.00 , 0.00 , 0.19
4.1394 ,  , 0.00 , 0.00 , -0.88 , 0.00 ,  , 0.00 , 0.00 , 0.00 , 0.00
4.2693 ,  , 0.00 , 0.00 , -0.88 , -0.13 ,  , 0.00 , 0.00 , 0.00 , -0.06
4.3900 ,  , 0.00 , 0.00 , -0.88 , -0.06 ,  , 0.00 , 0.00 , 0.00 , 0.06
4.5135 ,  , 0.00 , 0.00 , -0.88 , 0.00 ,  , 0.00 , 0.00 , 0.00 , 0.00
4.6415 ,  , 0.00 , 0.00 , -0.88 , 0.06 ,  , 0.00 , 0.00 , 0.00 , -0.06
4.7642 ,  , 0.00 , 0.00 , -0.88 , 0.06 ,  , 0.00 , 0.00 , 0.00 , 0.00
4.8914 ,  , 0.00 , 0.00 , -0.88 , 0.06 ,  , 0.00 , 0.00 , 0.00 , 0.00
5.0174 ,  , 0.00 , 0.00 , -0.88 , -0.06 ,  , 0.00 , 0.00 , 0.00 , 0.00
5.1418 ,  , 0.00 , 0.00 , -0.88 , -0.19 ,  , 0.00 , 0.00 , 0.00 , 0.06
5.2648 ,  , 0.00 , 0.00 , -0.88 , -0.13 ,  , 0.00 , 0.00 , 0.00 , 0.50
5.3902 ,  , 0.00 , 0.00 , -0.88 , 0.00 ,  , 0.00 , 0.00 , 0.00 , 0.06
5.5143 ,  , 0.00 , 0.00 , -0.88 , 0.06 ,  , 0.00 , 0.00 , 0.00 , -0.06
5.6429 ,  , 0.00 , 0.00 , -0.88 , 0.13 ,  , 0.00 , 0.00 , 0.00 , -0.31
5.7666 ,  , 0.00 , 0.00 , -0.88 , 0.06 ,  , 0.00 , 0.00 , 0.00 , -0.06
5.8916 ,  , 0.00 , 0.00 , -0.88 , 0.00 ,  , 0.00 , 0.00 , 0.00 , 0.06
6.1394 ,  , 0.00 , 0.00 , -0.88 , 0.00 ,  , 0.00 , 0.00 , 0.00 , 0.00
6.2662 ,  , 0.00 , 0.00 , -0.88 , 0.06 ,  , 0.00 , 0.00 , 0.00 , -0.31
6.3908 ,  , 0.00 , 0.00 , -0.88 , 0.13 ,  , 0.00 , 0.00 , 0.00 , -0.13
6.5167 ,  , 0.00 , 0.00 , -0.88 , 0.00 ,  , 0.00 , 0.00 , 0.00 , 0.06
6.6401 ,  , 0.00 , 0.00 , -0.88 , 0.00 ,  , 0.00 , 0.00 , 0.00 , 0.13
6.7639 ,  , 0.00 , 0.00 , -0.88 , 0.06 ,  , 0.00 , 0.00 , 0.00 , -0.19
6.8894 ,  , 0.00 , 0.00 , -0.88 , -0.06 ,  , 0.00 , 0.00 , 0.00 , 0.06
7.1396 ,  , 0.00 , 0.00 , -0.88 , 0.13 ,  , 0.00 , 0.00 , 0.00 , 0.06
7.2641 ,  , 0.00 , 0.00 , -0.88 , 0.06 ,  , 0.00 , 0.00 , 0.00 , 0.00
7.3897 ,  , 0.00 , 0.00 , -0.88 , 0.00 ,  , 0.00 , 0.00 , 0.00 , 0.06
7.5155 ,  , 0.00 , 0.00 , -0.88 , 0.06 ,  , 0.00 , 0.00 , 0.00 , -0.13
7.6392 ,  , 0.00 , 0.00 , -0.88 , 0.00 ,  , 0.00 , 0.00 , 0.00 , -0.13
7.7673 ,  , 0.00 , 0.00 , -0.88 , 0.06 ,  , 0.00 , 0.00 , 0.00 , -0.06
7.8890 ,  , 0.00 , 0.00 , -0.88 , -0.06 ,  , 0.00 , 0.00 , 0.00 , 0.06
8.1389 ,  , 0.00 , 0.00 , -0.88 , 0.06 ,  , 0.00 , 0.00 , 0.00 , -0.19
8.2648 ,  , 0.00 , 0.00 , -0.88 , 0.06 ,  , 0.00 , 0.00 , 0.00 , 0.00
8.3905 ,  , 0.00 , 0.00 , -0.88 , -0.69 ,  , 0.00 , 0.00 , 0.00 , -0.13
8.5181 ,  , 0.00 , 0.00 , -0.88 , 0.13 ,  , 0.00 , 0.00 , 0.00 , -0.25
8.6400 ,  , 0.00 , 0.00 , -0.88 , -0.13 ,  , 0.00 , 0.00 , 0.00 , -0.13
8.7670 ,  , 0.00 , 0.00 , -0.88 , 0.25 ,  , 0.00 , 0.00 , 0.00 , -0.19
8.8909 ,  , 0.00 , 0.00 , -0.88 , -0.13 ,  , 0.00 , 0.00 , 0.00 , 0.13
9.1390 ,  , 0.00 , 0.00 , -0.88 , -0.13 ,  , 0.00 , 0.00 , 0.00 , 0.06
9.2654 ,  , 0.00 , 0.00 , -0.88 , 0.19 ,  , 0.00 , 0.00 , 0.00 , 0.00
9.3916 ,  , 0.00 , 0.00 , -0.88 , 0.50 ,  , 0.00 , 0.00 , 0.00 , 0.00
9.5147 ,  , 0.00 , 0.00 , -0.88 , -0.69 ,  , 0.00 , 0.00 , 0.00 , 0.19
9.6423 ,  , 0.00 , 0.00 , -0.88 , -0.38 ,  , 0.00 , 0.00 , 0.00 , -0.31
9.7654 ,  , 0.00 , 0.00 , -0.81 , 0.31 ,  , 0.00 , 0.00 , 0.00 , 0.19
9.8887 ,  , 0.00 , 0.00 , -0.81 , -0.13 ,  , 0.00 , 0.00 , 0.00 , -0.06
10.0150 ,  , 0.00 , 0.00 , -0.81 , -0.13 ,  , 0.00 , 0.00 , 0.00 , -0.06
10.1397 ,  , 0.00 , 0.00 , -0.81 , -0.63 ,  , 0.00 , 0.00 , 0.00 , 0.13
10.2648 ,  , 0.00 , 0.00 , 1.88 , -89.81 ,  , 0.00 , 0.00 , -0.69 , 24.75
10.3890 ,  , 0.00 , 0.00 , 16.31 , 53.19 ,  , 0.00 , 0.00 , -2.31 , -12.38
10.5142 ,  , 0.00 , 0.00 , 11.69 , 27.31 ,  , 0.00 , 0.00 , -1.81 , -8.81
10.6436 ,  , 0.00 , 0.00 , 7.19 , 45.50 ,  , 0.00 , 0.00 , -1.06 , -9.06
10.7656 ,  , 0.00 , 0.00 , -0.94 , 91.63 ,  , 0.00 , 0.00 , 0.94 , -23.06
10.8903 ,  , 0.00 , 0.00 , -7.81 , 18.13 ,  , 0.00 , 0.00 , 2.50 , -4.94
11.0160 ,  , 0.00 , 0.00 , -4.88 , -70.63 ,  , 0.00 , 0.00 , 1.06 , 33.94
11.1413 ,  , 0.00 , 0.00 , 6.38 , -90.75 ,  , 0.00 , 0.00 , -3.63 , 24.44
11.2682 ,  , 0.00 , 0.00 , -0.50 , 116.75 ,  , 0.00 , 0.00 , 0.13 , -33.19
11.3899 ,  , 0.00 , 0.00 , -5.81 , -54.88 ,  , 0.00 , 0.00 , 1.38 , 17.31
11.5171 ,  , 0.00 , 0.00 , 4.88 , -58.88 ,  , 0.00 , 0.00 , -2.69 , 12.50
11.6396 ,  , 0.00 , 0.00 , -2.94 , 99.13 ,  , 0.00 , 0.00 , 0.50 , -40.94
11.7677 ,  , 0.00 , 0.00 , -4.06 , -16.00 ,  , 0.00 , 0.00 , 0.94 , 10.87
11.8888 ,  , 0.00 , 0.00 , -2.06 , -54.06 ,  , 0.00 , 0.00 , 0.06 , 22.44
12.0158 ,  , 0.00 , 0.00 , 2.94 , 23.75 ,  , 0.00 , 0.00 , -2.06 , -6.44
12.1394 ,  , 0.00 , 0.00 , -5.50 , 0.44 ,  , 0.00 , 0.00 , 1.75 , 4.00
12.2689 ,  , 0.00 , 0.00 , 3.00 , -104.50 ,  , 0.00 , 0.00 , -1.88 , 38.63
12.3905 ,  , 0.00 , 0.00 , 2.19 , 79.81 ,  , 0.00 , 0.00 , -1.25 , -36.06
12.5192 ,  , 0.00 , 0.00 , -8.50 , 7.69 ,  , 0.00 , 0.00 , 2.56 , 6.56
12.7653 ,  , 0.00 , 0.00 , 12.69 , 24.13 ,  , 0.00 , 0.00 , -5.31 , -28.19
