Time (sec), Nucleo Core Temperature (degC), Ambient Room Temperature (degC)
0.06400001, 25.44967, 24.1875
60.071, 25.44967, 24.25
120.078, 25.44967, 24.1875
180.085, 25.44967, 24.3125
240.092, 25.44967, 24.25
